        #100285 +(229)- [X]

        <K8> well the theme was aincient history
        <josh_ip_te> oh,
        <josh_ip_te> and you went as a viking?
        <K8> and my friend had some home made costumes
        * josh_ip_te wouldve gone as a black michael jackson

