        #103111 +(226)- [X]

        <genesis> mommy, why doesnt bc do logic math?
        <ch> because you touch yourself.
        <genesis> a world without bit shifts is a world i dont want to
        masturbate in

