        #1036 +(325)- [X]

        <Thinkmad> lets get up a game of cs
        <Thinkmad> fsho
        <Thinkmad> i want to make a map
        <Guilty> Oh god
        <Guilty> You would have penis's hidden EVERYWHERE

