        #10426 +(37)- [X]

        <nwinter> i am personally more concerned about israel and
        palestine
        cutting ties with each other than who's whipping who. :)
        <nwinter> but perhaps i am being trendy in my concern for more
        interesting
        issues. :)

