        #104928 +(318)- [X]

        <ANTIDEAD> I had a dream last night that I met you in real
        life, so we dressed up as zoro and smuggled drugs over the
        mexican border
        <ANTIDEAD> Perhaps I should lay off the burritos

