        #105201 +(182)- [X]

        <Wasted-> http://bash.org/?1730
        <Wasted-> http://bash.org/?3630
        <BadDoggie> http://bash.org/?22799
        <BadDoggie> Wasted: quit typing the top 100
        <Mitzii> why, your monitor running out of ink or something???

