        #10571 +(159)- [X]

        <Harrit> dv you arround?
        <Bionic_6> digital video it all around us
        <Bionic_6> it's in the air u breathe
        <Bionic_6> the water u drink
        <Bionic_6> the unconcisous girl u fuck
        <Bionic_6> everywhere
        <Harrit> dv8... you still around?
        <Harrit> smart ass

