        #107314 +(186)- [X]

        <+Jasper> SourceX, its because of people like you that they
        put up signs that say "Please don't touch the animals" in zoos
        <+Jasper> -P
        <@SourceX> i wouildnt do it with other ppl around anyways
        <@SourceX> the signs are pointless

