        #108030 +(238)- [X]

        * angeliz she slowly moves her tongue into his mouth ...he
        loves it
        [Beckham] angeliz?
        [Petrock] wrong room?
        *** angeliz has left #highveld

