        #10844 +(190)- [X]

        <Don Ravioli> you hear about [M]?
        <Xav> you mean about how it's full of rampant homosexuals?
        <Xav> yeah i heard, bad news man.
        <Don Ravioli> haha
        <Don Ravioli> why bad news?

