        #108629 +(177)- [X]

        <vasquez> whatever happened to that terron fellow?
        * wabbit points to jeff0r
        <DragonLord98> he died
        <DragonLord98> he got in a car wreck
        <DragonLord98> he got thrown through the windshield
        <DragonLord98> into oncomming traffic
        <vasquez> aww
        <DragonLord98> and hit by a church bus
        <vasquez> HAHA
        <vasquez> i knew that religion bull would kill him in the end

