        #10892 +(489)- [X]

        <Random> "You're so sweet, and intelligent. What's your name?"
        "Jeremy." "Isn't that male?" "Yes." "AAAAH STAB STAB STAB STAB
        NEVER STOP STABBING I HATE YOU KILL YOU KILL MOMMY KILL KILL."
        <--- Online lesbians are fun.

