        #10910 +(1215)- [X]

        <LabMonkey> ok riddle me this
        <LabMonkey> I open the pack of cigarettes
        <LabMonkey> pull out one
        <LabMonkey> pick up my lighter
        <LabMonkey> put the cigarette back in the pack
        <LabMonkey> then try to light my nose...
        <LabMonkey> What the fuck, over.

