        #111 +(1361)- [X]

        <jestuh> i was trying to go the speed limit so i didn't get a
        ticket but a cop got me in a school zone
        <DigDug> How much?
        <jestuh> i'm talking about need for speed not real life

