        #11185 +(1061)- [X]

        <[AFT]^Kempi> what really got her mad was....
        <[AFT]^Kempi> when i was burning a CD and got up from sex 1/2
        way through and changed the cd
        <[AFT]^Kempi> she didn't talk to me for a while

