        #1123 +(655)- [X]

        <SYch0> maybe in your dreams
        <SYch0> and youre pretty pathetic if you dream about me
        <SYch0> :o
        <MadHatter> you cease to exist as soon as I close irc
        <SYch0> hah
        <SYch0> which is never :|

