        #113143 +(32)- [X]

        <Agent5> i hear gold is rare up in canada
        <Agent5> sort of like finding a straight priest
        * Agent5 (CUE LAUGHTER)
        <Xenocide> lol
        <FrEEk> lol
        <Xenocide> i get it

