        #118551 +(258)- [X]

        <ChanServ> [|Wolf|] <|Wolf|> maybe you didn't notice my
        SARCASM
        <m|p|Leo`xp> yo
        <m|p|Leo`xp> anybody in here?
        * |Wolf| is now known as No
        <m|p|Leo`xp> ;-/
        <m|p|Leo`xp> wolf
        <m|p|Leo`xp> do u know if any1 is taking site requests?
        <No> this nickname should answer all your questions
        <m|p|Leo`xp> o roger that
        <m|p|Leo`xp> do u know when faction will be back?
        <No> ...
        * No points to his nickname
        <m|p|Leo`xp> k

