        #11887 +(442)- [X]

        <justin> why does bitchx sound so excited:
        <justin> -:- BitchX: Join to #tenet was synched in 1.161
        secs!!
        <justin> it's like WOW man!!
        <asm-X> cz, it's a hot little BitchX?
        <asm-X> with nothing but secs!! on her mind

