        #119765 +(184)- [X]

        (monkeh^): this girl from the us was emailing me saying her
        tummy hurts, out of curiosity i ask why its hurting
        (monkeh^): i got the reply today
        (monkeh^): and ill say this; she should have lied

