        #120993 +(653)- [X]

        <Head> if I download porn off of Kazaa
        <Head> you think the RIAA can find me?
        <dsbnh> yeah the RECORDING industry has huge ties for porn
        <[GSF]Nitro> Head- you will be sued by Ron Jeremy
        <[GSF]Nitro> actually, since his penis is a legal entity and
        franchise, it will be the wang that sues you
        <Head> lol
        <dsbnh> its actually declared a country
        <dsbnh> you can recieve asylum by hiding under it
        <dsbnh> it was recognized as a hero when it saved 3 children
        from drowning
        <Head> lol
        <Panz> and then cummed in there faces
        <dsbnh> ....
        <Panz> *Splat*
        <Panz> ....
        <dsbnh> why must you turn a story of heroism into a sick
        twisted pedophile affair

