        #121295 +(613)- [X]

        <Bravo56> How the hell is a penguin considered a bird? It
        can't fly!
        <Gremhawk> It has wings?
        <Bravo50> Ya, and I have man titties, that doesn't make me a
        woman.
        <Gremhawk> No, that just makes you a man with larger than
        normal breasts.
        <Bravo56> Go suck a dick.
        <Gremhawk> Your the woman, you do it. I'll just tell you how
        good it is.
        <Bravo56> I hate you.

