        #122456 +(36)- [X]

        * Kranium has quit IRC (I'mmm Sailing away.......Set an open
        course for the virgin sea..... Cause i've got to be freeee,
        free to face the life t)
        <Luigi30> Wait, I'm bored, I get to be the captain.

