        #13458 +(447)- [X]

        <psychicbug> I'm gonna find some third world country, and
        punch a store owner in the face
        <psychicbug> he's gonna start swearing at me in some fucked up
        language
        <psychicbug> and if I like any of the words I hear, I'll make
        it my new nick since this one sucks

