        #136477 +(568)- [X]

        <robbie212> where are you getting this stuff?
        <bahumbug> robbie212:
        www.freedvdrsforpeoplethatarentjewish.com
        <robbie212> it doesn't work
        <bahumbug> you must be jewish

