        #136487 +(178)- [X]

        (iTM): are you racist?
        (killjesus): gosh
        (killjesus): here we go again
        (killjesus): jumping to conclusions
        (killjesus): will it make you feel better if i tell you my
        name is Adolf
        (killjesus): and that i think black people are lesser human
        beings?

