        #13739 +(27)- [X]

        <Sumez> Did you fight Ozma?
        <Darth-Phenom> Maybe...who's Ozma?
        <Sumez> The bad-ass optional big boss
        <Darth-Phenom> Where is he?
        <Gaffa> Right behind you!

