        #137480 +(431)- [X]

        <NekoNick> And you claim to be sentient?
        <RaZorblade>
        sentient???????????????????????????????????????????????
        <NekoNick> I guess that answers my question.

