        #138631 +(744)- [X]

        <Vict0r> they made a hackers 3?
        <Vict0r> i didn't know that
        <Majuju> they made a hackers 2?
        <jules> they made a hackers 2?
        <mnerd> what's hackers
        <jules> winner.

