        #140 +(468)- [X]

        <DigDug> Acero: don't look a gift horse in the mouth is what i
        say
        <Acero> DigDug: yeah, i guess i should just stick my dick in
        and find out if i get herpes for myself!

