        #141224 +(1028)- [X]

        <barka> one more time, anybody around here use StrokeIt?
        <e> no, I prefer KY Jelly
        <barka> Y2KY Jelly.
        <barka> To cram 4 digits where only 2 used to fit.

