        #144922 +(875)- [X]

        <@adsf> nz is good to go to if you from aus cus there dollar
        is actualy worse then ours
        <*@orange1> that's because of all the civil unrest
        <*@orange1> orks fighting the horse people and whatnot

