        #14707 +(219)- [X]

        <Tomes> rpenguin is the picture of credibility, you know.
        <Tomes> rpenguin is the standard of integrity to whom all
        others are compared
        <Tomes> when i meet a man, i ask, in true socratic method, "is
        this a greater man, or a lesser man, than rpenguin?"

