        #147493 +(313)- [X]

        <-yper-orse> mamma mia
        <-yper-orse> my my
        <-yper-orse> i cannot resist u
        <-yper-orse> mamma mia
        <Squeeks> "With Dragon Voice, you too can flood IRC Channels
        as you sing to ABBA"

