        #148121 +(1357)- [X]

        <Soybomb> On the way home yesterday, I saw a car with a vanity
        plate that read: LINUX OS
        <Soybomb> I really wished for a truck with a WINDOWS plate to
        ram it...sadly, no.
        <Druuna> unfortunately, you'd probably crash before hitting
        it...

