        #14860 +(689)- [X]

        [01:03am] ·ct· last night
        [01:03am] ·ct· my girlfriend walks out of the room to goto the
        bathroom
        [01:03am] ·ct· and she walks back in
        [01:03am] ·ct· and i start feeling her tits
        [01:03am] ·ct· and she turns on the light
        [01:03am] ·ct· and its not even her, its my mom
        [01:03am]  Necro  ...

