        #15007 +(380)- [X]

        <@Cyb> wtf is it
        < tom> like pictionary
        < tom> it sounds gay but its actually really fun
        < tom> until people start drawing pictures of kkk people with
        NIGGERS DIE written on them
        < tom> but that only happened this one time

