        #15055 +(146)- [X]

        <mos6581> i made a pornomovie once. though, i had such a small
        budget that i couldn't afford to hire any actors, so i had to
        act all alone. I gave the movie a name "hand".

