        #1521 +(-456)- [X]

        (br0kerman) leave him alone
        (br0kerman) hes more l33t then u
        (br0kerman) he deserves +o
        (Skizer) no, he can fuck off
        (Skizer) he deserves +JEW
        (br0kerman) why?
        (Skizer) cause he's a faggot
        (Skizer) not even +JEW
        (br0kerman) hahah
        (Skizer) some jew's are cool
        (Skizer) he's gay
        (Skizer) he deserves +SANFRANCISCO cause he's a flaming faggot

