        #153171 +(576)- [X]

        <zamros> moose i am going to kick you in the groin until the
        only thing you have there is a bloodied mass of pulp
        <Mooseka> HAHA, YOU'RE TOO LATE

