        #15467 +(382)- [X]

        <rogue> I like how matt took the time to tell us he was
        vomiting
        <rogue> it's that kind of detail that really makes this
        channel work, I think

