        #15579 +(262)- [X]

        <enJoy> just the other day
        <enJoy> I told Chris "So I hear your girl is pregnant"
        <enJoy> he goes "Ya and when I find the dude I'm gonna
        strangle him"
        <[zT]Lunchie> =-0

