        #1575 +(1322)- [X]

        <CoN> ... next you'll tell me that you shaved your pubes under
        the misdirection that i care
        <[U|C]SKS_Lover> eh...
        <[U|C]SKS_Lover> hey CoN, I shave my pubic hair under the
        misdirection that you care.
        <CoN> oh thanks
        <[U|C]SKS_Lover> then I make socks out of it.
        <CoN> ... thats weird
        <[U|C]SKS_Lover> human-wool socks
        <[U|C]SKS_Lover> >:D
        <[U|C]SKS_Lover> wanna know how I make apple juice?
        *** CoN has quit IRC

