        #15870 +(244)- [X]

        <dabblerblue> i hate pants that are only comfortable when
        you're standing :(
        <nzc> so takem off
        <dabblerblue> i can't, i'm about to go out
        <dabblerblue> i put them on so i could leave without being
        arrested
        <dabblerblue> i hate that

