        #16120 +(391)- [X]

        <ShadiZar> get your happy ass over here then
        <ShadiZar> i could use a good hard... well, anything
        <`KArmA> oh sure. . . its always karma come do this for me. .
        come out to texas karma, fuck me like a beast karma, oh harder
        karma
        <`KArmA> what about *MY* needs goddamnit!?!?

