        #162090 +(217)- [X]

        * Krazed has quit IRC (Quit: FUCK GAMESNET, FUCK MILON. DONE
        WITH THIS POOR ASS NETWORK)
        * Krazed has joined #dynamite-hosting
        <Ohm`laptop> wb

