        #16372 +(1973)- [X]

        <Cyberllam> I want to get a bumper sticker that says "Honk if
        you think I am doing an excellant job driving." Then I can cut
        people off and they won't know what to do.

