        #16926 +(517)- [X]

        <@harb> farq: Do I look like the sort of man who'd go and find
        unsuspecting Japanese schoolgirls in short skirts and white
        panties and ask them if they want to see my "Cthulu Special"?
        < farq> harb: no, but I just got a new .sig

