        #16985 +(1198)- [X]

        <Cross> I was at the kareoke bar last night
        <Cross> and i was talking to this hot chick for like 20
        minutes
        <Cross> and this other girl walked over right in the middle of
        my conversation
        <Cross> and said "Are you talking to my sister? Cause she's
        deaf"

