        #17208 +(224)- [X]

        <Oldboy> mt dew shrinks your cock
        <MiNdPhuCk> Tell me that again as I slam my 12 inch long, 4
        inch wide cock down your throat while drinking a dew
        <Oldboy> plastic doesnt count

