        #17212 +(529)- [X]

        <DarkMyst> Where do Babies come from? The woman or the man????
        <OlEnglish> the stork
        <OlEnglish> but who fucks the stork?
        <DarkMyst> good question

