        #17725 +(1013)- [X]

        <prok> still living at home :/
        <nug> living at home is cool and all, but it sucks to kick a
        bitch out in the morning and she walks past my parents on the
        way out
        <p0ng_> fuck that, i'm loving with my dad till he moves
        <prok> BEST TYPO EVER

