        #17813 +(348)- [X]

        <Raikenku> "Recent study shows Mac users are often more
        educated than Pc users"
        <Magus> that's because any idiot can use a PC
        <Magus> but it takes an art degree to use a mac :D

