        #17864 +(17)- [X]

        iamouija: Because I'm Jewish
        iamouija: and eVERYONE HATES JEWS
        fireydarkness: I didn't know you were jewish
        fireydarkness: bitch I hate you, go away -.-

