        #17907 +(151)- [X]

        <George>  : Walmart is selling Linux boxes now.
        <George>  : Onward and upward.
        <George>  : Once you get them in the Walmart's, Cosco's, and
        K-Mart's, world domination is near.
        <3hreeD>  : yeah george but there's only so much you can do
        with those linux boxes
        <George>  : Yeah, like run the net.

