        #179616 +(2172)- [X]

        < skel> I just patented an atmospheric bio-oxygen extraction
        device..
        < skel> now I'll sue anyone breathing
        < skel> mwuhahahaha!
        < skel> i was just kidding guys
        < skel> you can let your breath out
        < skel> =P
        < skel> guys?
        < skel> OH DEAR GOD!! WHAT HAVE I DONE?!
        < skel> BREATHE PEOPLE!!! BREATHE!!!

