        #182718 +(500)- [X]

        <Bl1tz|> lol I think Tatu arose out of a secret expiriment to
        log the average American's web search
        <Bl1tz|> and they came up with 'young teenage Russian
        lesbians'

