        #184538 +(961)- [X]

        <RDrR> FUCK FUCK FUCK
        <RDrR> i was tryin to do that spray whippd cream snorting
        thing
        <RDrR> i filled my entire fukin nasal cavity with whipped
        cream
        <RDrR> fuck its bleedin

