        #1916 +(450)- [X]

        -PDC:#windowsnt- MCSE = Must Consult Someone Experienced
        (L0ki) MCSE=Mindsweeper Consultant and Solitare Expert
        (nexxai) MCSE = Must Consult (with) Someone Else

