        #192474 +(428)- [X]

        * vryxnr does a happy dance again
        <vryxnr> :D
        <vryxnr> @--<
        <vryxnr> @-|-<
        <vryxnr> @-?-<
        <vryxnr> oops
        <Keioto> hahah
        <Keioto> you broke your arm

