        #1944 +(558)- [X]

        <faceless> so if afro americans = niggers and middle
        easterners = sand niggers and asians = rice niggers what can
        we call canadians?
        <al-x> we're snow niggers

