        #197075 +(661)- [X]

        <Bijiy> SEABISCUIT!!!
        <[On-Air]NiM> Bijiy
        <[On-Air]NiM> I watched that movie with my mom
        <Bijiy> I did too
        <[On-Air]NiM> I will never watch a movie with my mom again
        <Bijiy> same
        <[On-Air]NiM> at the part in the stable she was like
        <[On-Air]NiM> WOW LOOK AT HOW BIG THE HORSES C0CK IS
        <Bijiy> heh
        <[On-Air]NiM> and I was like, OMG PLEASE NO...
        <Bijiy> hahahaha

