        #1971 +(79)- [X]

        <Stacey> justin man i want you to meet my nerd friend from
        school
        <Stacey> i want you to make fun of him
        <Stacey> i have to run from him everyday
        <Stacey> not friend
        <Stacey> no no no
        <Stacey> and i had to sit for ten minutes watching him show
        off his dos commands
        <Stacey> and i'm like i wanna go out for lunch i have a
        life...fucking type format C: before i kill you

