        #200875 +(733)- [X]

        On new years eve a friend told me this:
        Psychism Alchemy: ugh I think I'm on my computer to much...
        Psychism Alchemy: someone just asked me what my resolution was
        as I answered 1600x1200...

