        #204222 +(479)- [X]

        * trib has just *almost* burned his flat to the ground
        <bobstay> wow
        <bobstay> how did you manage that?
        <bobstay> the ground's quite a way away
        <trib> I put a big lump of meat int he oven and roasted it
        <trib> and used the smoke detector as a timer

