        #204240 +(608)- [X]

        <Kintai> Yes, boobs are like toy trains
        <Wallaroo> ?
        <Kintai> They're meant for children, but grown men tend to end
        up playing with them anyway.
        <Placebo> hahahahaha
        <Placebo> ROFL

