        #205221 +(477)- [X]

        <Eglin> yuck.... didn't think that asking about a c# like
        static string method would start a stinking flame war.
        <pedantic> Eglin: you are new to irc aren't you

