        #20747 +(125)- [X]

        * infinitySPZ gives it to Wolf-Olo in the butt.
        * Wolf-Olo howls
        <Peri> aww how cute
        <infinitySPZ> $replace($1-,it,Peri)
        <Wolf-Olo> Bastard
        <Wolf-Olo> We were just getting close

