        #207692 +(541)- [X]

        <[G4]CowBook> weren't u beat up by an 8yr old girl like last
        year?
        <DannyBoy> she was 12 dude
        <DannyBoy> big difference
        <DannyBoy> she caught me off guard
        <DannyBoy> I would have pounded the little bitch

