        #21126 +(177)- [X]

        <Calculus> ...YE GODS I have too many DVDs.
        <Calculus> ...how do I have so many DVDs and so little money?
        <Zibblsnrt> possibly because you have so many DVDs? *ducks*

