        #212732 +(300)- [X]

        <Grezshnaw> I didn't discover masturbation until I was around
        12/13, and then it was by dressing a pillow up in my sisters
        clothers and humping it.

