        #21788 +(2661)- [X]

        <niceboy19> i'm german
        <Evilbert-> don't worry i won't mention the war
        <niceboy19> what do you mean with that
        <niceboy19> you just mentioned it
        <Evilbert-> you started it
        <niceboy19> i didn't
        <Evilbert-> Yes you did! You invaded Poland!

