        #2183 +(423)- [X]

        <kisama> you guys are lightweight nosepickers
        <kisama> i get bloody mucus sometimes
        <kisama> have to break out the guaifenesin
        <kisama> or insufflate salt water
        <McMoo> man
        <McMoo> don't even talk shit about my nose
        <McMoo> i can get quarters up it horizontally
        <McMoo> my record is 8 pennies in one nostril
        <kisama> circus freak

