        #221367 +(1225)- [X]

        <PasteyGamer> So, what class of character would you like to
        be?
        <Malt_Liqa> Possibly a theif.
        <PasteyGamer> Um, alright. There are many forms of that class
        like, rogue, assassin...
        <Malt_Liqa> I'll be an assassin!
        <PasteyGamer> Are you sure, there are some downsides.
        <Malt_Liqa> Are you fucking kidding?! It has ass in it! TWICE!
        <PasteyGamer> Why the fuck haven't I killed you yet?

