        #22192 +(143)- [X]

        <Thrash123> Yes, because they "reviewed the URLs and came to
        the decision that my User ID was being used to view
        pornographic material"
        <Thrash123> So I'm getting accused of trying 243 times to
        access porno :)
        <Dank_Budz> they must have seen goatse.cx
        <Thrash123> Yeah

