        #223887 +(1375)- [X]

        <+t4D> man. i think its time to bring the coffee maker into
        the bedroom
        <+ScratXP> You may be moving too  fast
        <+ScratXP> take it to a movie first

