        #22493 +(283)- [X]

        <Tovart > I have alot of people in my aim thingy
        <Neris|ffx > you professional thing you =P
        <Tovart > neris stop laughing I use windows 98 MOUSE EDITION'
        <Tovart > where i use a mouse
        <Tovart > i could hack u so bad your ancestors house would
        burst into flames

