        #22707 +(806)- [X]

        <burrahobbit> "Hi, my name is Tyson Vandagriff and, I am going
        to be your roommate next year at OU."
        <burrahobbit> AND COMMA
        <burrahobbit> HOLY CRAP MY ROOMMATE IS RETARDED

