        #22858 +(166)- [X]

        <@shp> you think when we are older we will all sit in irc and
        say stuff like "remember when we were young and drinks were
        cheap and priests could molest young boys?"

