        #22905 +(455)- [X]

        <Blixt> I wonder if the Korean army uses starcraft tactics
        <Taerkar> extending the creep and sending hordes of zergs at
        their enemies?
        <Taerkar> "You! Mine those crystals. You two, into the gas
        factory."
        <Blixt> KEKE LA~ OFFICER!

