        #22939 +(2533)- [X]

        <NyseriA> i just hit my hand with a hammer
        <NyseriA> and the first thing i said was "SPLENDID"
        <NyseriA> which made me laugh
        <NyseriA> then i dropped the hammer on my foot because i was
        laughing at me saying splendid instead of FUCK

