        #23131 +(606)- [X]

        [13:49] <Saxon-> but I am still two steps up the evolutionary
        ladder from karma
        [13:49] *** Saxon- has quit IRC (Read error 54: Connection
        reset by peer)
        [13:49] <ShadiZar> rofl
        [13:49] <`KArmA> THATS WHAT YOU GET FOR FUCKING WITH ME PUNK
        [13:49] <`KArmA> !!!!!!!!!!!!!!!!!!!!!!!!!!!!!!!!!!!
        [13:49] <`KArmA> incidentally
        [13:49] <Vikki> lol
        [13:50] <`KArmA> despite the impressive coincidence
        [13:50] <`KArmA> I had nothing to do with that

