        #23347 +(303)- [X]

        *** Quits: Light^NG (i got chikz in da livin' room gettin' it
        on, and they ain't leavin' 'till six 'n the morn')
        <rhythm> what the fuck
        <rhythm> i wanna go to his house

