        #236 +(3136)- [X]

        <FyNXeR> Pardon my spelling... but I'm from Sweden
        <sumbody> pardon my accent, i am from southeast asia
        <DrMonkey> pardon my shotgun, i'm from west virginia

