        #236305 +(434)- [X]

        <!fis> finally my nickalert works =D
        <!fis> FUCK
        <!fis> i think my screen just burnt through
        <!fis> i can type
        <!fis> but i don't see anything
        <!Purge> fis
        <!Purge> fis
        <!Purge> fis
        <!Purge> fis
        <!Purge> fis
        <!Purge> fis
        <!fis> stop that
        <!Purge> actually.. i just tried to morse you something =/

