        #239710 +(512)- [X]

        <+llamaInAbox> i have lint in my eye
        <+llamaInAbox> this is not nice
        <+ApEtc> Remove it
        <+llamaInAbox> the eye?
        <+ApEtc> Whichever stops your complaining

