        #246239 +(541)- [X]

        CREdragon) it takes a man very comfortable in his
        heterosexuallity to have sex with another man
        CREdragon) ... wait that came out wrong
        ~SS) ..
        ~SS) You have been bashed.

