        #24772 +(129)- [X]

        <Daniel> maxi wants to unf her :D
        <Haggis> saying maxi wants to unf her isnt a big deal :)
        <Daniel> yer, but the fact that they live like 4 km from each
        other sweetens the deal :D
        <Haggis> pie...with maxi, if the chick was _ALIVE_ it would
        sweeten the deal

