        #24963 +(327)- [X]

        <PolestaR> Swish I dont have your skill where you just say
        *smiles* online and the girl is yours
        <Swish> rofl
        <PolestaR> I have to like, talk for like 5000 chars before I
        even get the phone number
        <PolestaR> which is fake

