        #252656 +(1802)- [X]

        <Nyphur> DIX has a point. That kind of muscle development at
        that age isn't something to be celebrated. It's unnatural and
        as such, the body isn't designed to do it. It's going to cause
        him unforseen problems in the future.
        <Nyphur> Good. He deserves it.
        <MonkeyDLuffy> ...?
        <MonkeyDLuffy> Nyphur, did you just reply to what you just
        typed?
        <Nyphur> I did, yes. This kind of thing happens at 4AM.

