        #25276 +(425)- [X]

        <Draven> w0ot. 150 MB porn movie done!
        <kaMIKazE> nice
        <+RedvaldezAWAY> not bad Cow
        <@murder1> wd d/l a 150 mb movie when all you're gonna last is
        at 500kb

