        #25372 +(15)- [X]

        <Router> does anyone feed their furby with their penis
        <BassDrop> those things are for pussies
        <Router> i think that would be funny
        <Router> YUM
        <Router> lol

