        #257646 +(10)- [X]

        <dreln> i change my nick alot
        <Renski> ah
        <Renski> you were on the last bsrf irc too then, I remember
        some guy say exactly the same thing
        <Renski> cant you just choose one and stick with it?
        <dreln> no im the unstable release

