        #262521 +(560)- [X]

        <@spr|efnex> last day of highschool
        <@spr|efnex> im going to take 2 or 3 viagra, go up to every
        girl that rejected me, point at my pants and say "LOOK WHAT
        YOU MISSED, BITCH"

