        #26296 +(120)- [X]

        <Raven> i made a total of 3 total conversions by myself
        <Raven> audio, graphics, music AND levels
        <Raven> all by myself
        <Raven> that was all during one summer
        <Raven> i was 12
        <skwerrel> was that the same summer you took over the world
        and dominated Europe's fashion scene raven?
        <panda> is that why european's can't dress?

