        #26290 +(43)- [X]

        <hipnotoad> Ah that was good, a new record, i lasted ten
        seconds!
        <tate> Quick Draw McGraw, they call him
        <Tony> so what if Deon is Quick Draw, for me, its like a
        twinkie, the best part is the cream.

