        #266257 +(1439)- [X]

        <rzrblade> Yeah so my therepist told me the other day I had
        "skeptical realism."
        <rzrblade> I looked at him like, "what the fuck?"
        <rzrblade> And he says, "yeah i just made that up."

