        #266250 +(740)- [X]

        Pika98765: then stick it in the center and it won't be so ugly
        :p
        Amarok: ...
        Amarok: My father just woke up screaming "Suck my scrotum you
        cocksucking chink whores."

