        #2732 +(456)- [X]

        <im3t8> my last nightmare was of my computer trying to kill me
        <Apathetic> really?
        <im3t8> but in the end it was just the mouse
        <Apathetic> maybe that's metaphoric for something
        <Apathetic> :/
        <im3t8> its a microsoft mouse
        <im3t8> :/

