        #27791 +(477)- [X]

        <Raenne>  Damnit, my cookies are only half baked
        <Tungee>  Smoke em up a bit more then
        <Futility>  Heh heh heh... half baked.
        <Raenne>  I stuck em back in the oven :)
        <Tungee>  Mazi
        <Tungee>  Nazi
        <Raenne>  ...
        <Raenne>  They are COOKIES, not PEOPLE
        <Raenne>  chocolate chip :)
        <Tungee>  The nazi's didn't believe the Jews were people
        either

