        #283819 +(1025)- [X]

        <ic3n3t> there is a bunch of girls playing soccer in the park
        <uberartsyboi> im coming over.
        <ic3n3t> i think they are 15
        <ic3n3t> pedophile!
        <uberartsyboi> im shaving the goatee then coming over.
        <ic3n3t> i'll get the lawn chairs

