        #30325 +(288)- [X]

        <RaVenCorax> someone watched demolition man last night
        <Admiral_Justin> someone did?
        <Admiral_Justin> the ratings are in?
        <Admiral_Justin> :o
        <Admiral_Justin> We must find this man and do many terrible
        things to him.

