        #304889 +(652)- [X]

        * SamGamgee has joined #O-Gaming
        <RavenBUSY> mister gamgee!
        <SamGamgee> mister busy
        <RavenBUSY> SPEAK FRIEND AND ENTER
        <JDski> thats tattooed on my ex's ass

