        #30507 +(273)- [X]

        <Cain> whatever yoy want... but I am not cumin again
        <Cain> GDSfsa
        <Cain> hj
        <Cain> auhjs
        <Cain> NO
        <asagiri> WRONG WINDOW BABU
        <Cain> I am so never ever having netmeeting and IRC open at
        the same time

