        #31105 +(-75)- [X]

        [JOIN] #sandiego: cuervo
        (cuervo@digits.zerokarma.sleepers.net)
        <cuervo> HI, I'M A FAG, AND BEING A FAG, I LIKE TO SPEND ALL
        MY TIME IN #SANDIEGO, BECAUSE EVERYONE ON EFNET KNOWS THAT #
        SANDIEGO IS FULL OF FAGS.

