        #311282 +(859)- [X]

        ( l008com) Hey does anyone know how David Blaine levitates?
        ( LoganCale) There are two ways.
        ( LoganCale) One way he's on a cable and they digitally edit
        it out.
        ( l008com) no he's on ABC thats not cable

