        #31698 +(132)- [X]

        Feyd-Rautha: So when are you getting cable anyways?
        Hsu: soon
        Feyd-Rautha: I can taste the broadband
        Hsu: taste like victory
        Feyd-Rautha: But a word of advice: don't put your lips on a
        live cable wire.

