        #32584 +(391)- [X]

        * Preachy gets out the guitar
        <Ron> ?
        <Ron> you play guitar? cool
        <Ron> i play guitar too
        <Preachy> actually I call my cock a guitar

