        #328175 +(747)- [X]

        Scrodule: i have an interesting obesrvation
        ezeerB: ?
        Scrodule: if you swing your finger by your ear really fast,
        you get this very low sounding "wfff" noise
        Scrodule: hmm, that sounded more profound while i was thinking
        about it

