        #3358 +(167)- [X]

        <tril0gy> i think with my gov't tax return i'm gunna buy a
        redmav
        <spicrx7> you're better off getting a shirt that says "I suck
        cock."
        <ChronosGW> Then you and DMC can be mav-buddies
        <spicrx7> same effect as having a red mav
        <spicrx7> except the tshirt would be worth more

