        #33594 +(294)- [X]

        <Dru> been going strong for like 20 minutes
        <Velcro_> the viagra's helping eh?
        <Dru> yeah like i need drugs to keep a constant hard on
        <Quorthy> viagra is for ppl without usenet access
        <Quorthy> & usenet is for ppl without vagina access

