        #33604 +(146)- [X]

        Kim: brb.. needta potty
        Mike: well thank you for that info
        Mike: my life is complete with the knowledge yer emptying yer
        bladder right now
        Mike: speaking of which.....
        * Mike brb

