        #33667 +(95)- [X]

        <RichiH> then how did you find out?
        <RichiH> i have ignored all ctcps
        <aboman> Dazman found out utilizing his investigative skillz
        <RichiH> anal probing?
        <Dazman> WTF are you on about
        <RichiH> no, i would of noticed

