        #33868 +(26)- [X]

        <Phobos> right, im off to build a slimline super computer, i
        will saw the 1.2ghz board i have so that it will fit into my
        lunchbox
        <Phobos> and the poor fucker who forgets his lunch and dares
        to open it, will be shiting an amd duron chip a day or two
        later

