        #34248 +(116)- [X]

        * phucknut == drunk
        <phucknut> wh00000
        <ian_> phucknut, I replaced your beer with bottles of my piss.
        <phucknut> yum
        <phucknut> i'm gonna go back to the bar and drink some more
        <phucknut> wh000
        <phucknut> lata chump
        <phucknut> ssss
        <cwd> haha
        <cwd> phucknut turns into a dalnet user when he's drunk

