        #34312 +(151)- [X]

        <madsen> is there an online Perl-manual that resemples the
        php-manual. (God! That manual can bring a grown man to his
        knees.)
        * madsen panics.
        <madsen> I'm in love with a manual...!

