        #34530 +(374)- [X]

        <Kazimierz> Dick Van Dyke
        <Kazimierz> rulez j00
        <nkrn> D:
        <AeroBob> Indeed.
        <AeroBob> D'you know that's not his real name?
        <AeroBob> It used to be 'Penis van Lesbian' until he changed
        it 'cause he thought it wasn't suitable for showbusiness.

