        #34602 +(1523)- [X]

        TECC:  |:|:|:|:|:|:|:|:|:|:|:|:|:|:|:|:|:|:|:|:|:|:|:|:|
        TECC:  oops, soz.  wrong window.
        Fuhrur:  why in the fuck would you type that to anyone?

