        #3469 +(275)- [X]

        <blazemore> Windows XP Professional Uptime: 4wks 4hrs 55secs
        <blazemore> time to reboot
        <ScumDog> that's so retarded
        <mandarin> heh...uptime is sad
        <mandarin> more sad is most *nix nerds have longer uptime
        records than relationship records ;)
        <mightyflo> Relationship OSR2 Sexual Uptime: 2wks 6hrs 12secs

