        #3474 +(319)- [X]

        <@Catgirl> The three stages of Catgirl hating: #1) "FUCK YOU
        I'M RIGHT YOU'RE WRONG" #2) "FUCK YOU I BET YOU'RE NOT A GIRL"
        #3) "FUCK YOU" *ban* PM: "I'd like to fuck you."

