        #348528 +(315)- [X]

        <sd> my mom got pissed at me today
        <sd> I was wearing the "the axe effect" and it must have
        turned her on, because she told me to leave the room and stay
        away from her =/

