        #350385 +(1033)- [X]

        <evilkalla> oh man
        <evilkalla> that club sandwich has caused some intestinal
        armaggeddon
        <ModernAngel> four horsemeats of the anal apocalypse
        <crux> well, there goes my boner

