        #351029 +(1414)- [X]

        <Raiks> Has anyone got their 'Violence Against Women:
        Australia Says No' booklets yet?
        <Sweep> i have raiks
        <Natus> i have too
        <Raiks> My girlfriend opened it and got a paper cut from it,
        and then belted me for laughing at her

