        #352051 +(940)- [X]

        <LS_Nick> :o
        <LS_Nick> there appears to be arse-cheek marks on my
        scanner...
        <des1re> wtf
        <LS_Nick> strange...
        <LS_Nick> tastes like my sister =

