        #353088 +(348)- [X]

        Vortosis: The best line is something my friend Brandon yelled
        at a chick across the street while we were skating
        Vortosis: "Hey wanna go half and half on a baby!?"

