        #35457 +(384)- [X]

        <iretd> BTW, when you see 'TS' in a movie pr0n header, it
        stands for 'transexual' or 'transvestite'.
        <dalias> hahaha iretd
        <techlord> heh
        <dalias> did you learn that the hard way?
        <iretd> dalias, sure did. Was hard intended pun? :)
        <iretd> There was something more to that chick. Couldn't quite
        put my finger on it. And then there it was. Something I
        wouldn't wanna put my finger on.

