        #3554 +(954)- [X]

        <@Dark_un> is there an actual term for banks lending out
        money?
        <@bytraper> loan
        <@Dark_un> i was thinking of the process
        <@incorrect> scam

