        #357526 +(790)- [X]

        <Nosnam> Who?
        <mystie> this dude on jeopardy, he was on his 20th return
        today
        <Nosnam> Woah
        <mystie> I didn't happen to catch if he won again today
        <NeoHentaiMaster> he is a robot sent from the future to win
        the prize money so others cant
        <NeoHentaiMaster> he will slowly drain the world economy until
        all collapses into chaos
        <Nosnam> George Bush is on jeopardy?

