        #35764 +(268)- [X]

        <Celestar> They have found an enourmous security hole in
        Microsofts VPN implementation on all Win2000 and WinXP
        versions
        <RichiH> Celestar: did they have enough free space on the bug
        list to add it?

