        #3577 +(274)- [X]

        <Corranfox> GF?
        <metroid23> you'll get it eventually...
        <Corranfox> guitar freaks
        <blazemore> it's not like it'd stand for girl friend.. this IS
        #bemani after all

