        #35913 +(18)- [X]

        <eyesore> Now Link looks like a child molesters poster child
        <Crimson_Dynamo> The new game will sell well if its target
        demographic is catholic preists
        <eyesore> lol
        <eyesore> ZING!

