        #36201 +(256)- [X]

        <GokuSSJ4> My first car was free
        <Genome> GokuSSJ4 u stole it?!!
        <GokuSSJ4> Nah my parents gave it to me
        <GokuSSJ4> lol
        <Genome> they stole it???

