        #36446 +(-4)- [X]

        <WillaCuz> THERES A MIDGET ON MTV
        <WillaCuz> noooooooooo
        <WillaCuz> i missed it
        <WillaCuz> lol
        <aNuBiS-> :/
        <aNuBiS-> I wanna fuck a dirty midget slut
        <aNuBiS-> Then when I go to cum on her face, have her jump up
        trying to catch it like raindrops from the sky
        <Chr[i]s> hahahah

