        #36599 +(246)- [X]

        <Abbadaba> Client just came and filled out our forms before
        her appointment.
        <Abbadaba> Was looking them over to make sure she filled in
        everything properly.
        <Abbadaba> Reason for visit: "I think I'm going nuts."
        <Abbadaba> Occupation: "Postal Service."

