        #36707 +(108)- [X]

        *** Aplo (bos21@ppp212-134.access.bryansk.ru) has joined #c++
        <Aplo> !list
        <Hexley> Aplo: Please type "no warez here toidinamai" (without
        quotes).
        <Aplo> no warez here toidinamai
        <Hexley> Aplo: Thanks for Playing. Now read what you said
        (last word reversed)... ;)
        <IRoC> lol
        <TelimTor> lol
        *** Aplo (bos21@ppp212-134.access.bryansk.ru) has left #c++

