        #36712 +(81)- [X]

        *** Soze-AWAY is now known as Soze
        * Soze is back -( Doin' stuff. )- gone 2 hr 46 min 26 s
        <Al_Koholic> Jesus
        <Al_Koholic> that was a long masturbation session
        <Soze> It's fucking raw... luckily, the blood can be used as
        lube.

