        #3684 +(131)- [X]

        <dodgey> my g/f somtimes talks to me in html code
        <dodgey> quite cute... eheh
        <dodgey> like i go to bed the other night, she sais
        <dodgey> actually, what did she say

