        #3698 +(127)- [X]

        <Joshua> i'm almost out of money for food... and i've got 4
        more months before i go home...
        <Joshua> all of my remaining food money is going towards
        caffeine.
        <Villager> who needs food when you have caffeine eh?

