        #37368 +(390)- [X]

        <Fiero_Firestorm> My sister's singing to her crap...
        <Strife> ...
        <Strife> Your sister is singing to her turds?
        <Fiero_Firestorm> No.
        <Fiero_Firestorm> Her music.
        <Strife> Does that make it come out easi--oh!

