        #374795 +(327)- [X]

        <Xira> I seriously hope ATi catches up with nVidia
        <Xira> (read: OpenGL)
        <ByronT> I seriously hope my wife is in good mood tonight.
        <ByronT> (read: sex)

