        #37534 +(445)- [X]

        <FlyNavy> I'm on irc, discussing why I can't get laid
        <FlyNavy> and I realize
        <gee> muahahaha.
        <FlyNavy> I can't get laid cause I'm on irc all the fucking
        time

