        #3756 +(474)- [X]

        <Ad0> I met my gf (which is here as we speak) over IRC
        <Wyatt> Ad0: Are you both IRCing side-by-side?
        <Ad0> almost
        <Ad0> she is in the kitchen with the laptop

