        #377215 +(365)- [X]

        * Uman sets mode: +vvv Mode6Nine ostrich Raptor|Sleep
        * Quits: ostrich (Quit: )
        <Uman> So that's how to get rid of ostrich...
        <[dZ]Thane> ..
        * Uman sets mode: +v [dZ]Thane
        * Uman crosses his fingers

