        #38322 +(38)- [X]

        <daenonok> yea, but keep in mind when you're talking to d4n
        you're talking to someone so poor
        <daenonok> he used to steal five dollars worth of caps (like
        for cap guns)
        <daenonok> empty the power into a paper towel, wrap it up and
        light it
        <daenonok> and that was his 4th of july

