        #38384 +(210)- [X]

        <s|urpee> like seriously... "Book Appreciation Month"?????
        <s|urpee> Who the fuck thought that one up?
        <Argent-> s|urpee - someone who gets hawt talking dewey
        decimals
        <s|urpee> 017.223 JER
        * s|urpee shivers happily
        <daedalus`> i want to see official geek month... a month where
        geeks are
        no percicuted and bullies get hit up for lunch money.... ...
        that wouls
        rock
        <daedalus`> hahaha
        <Argent-> I want 'throw a fat old guy a mercy fuck' month.
        * Argent- coughs.
        <Argent-> Oh, come on- that was funny ,)

