        #38395 +(303)- [X]

        * byra bounces like a retard
        <Argent-> Are you listening to something bouncy?
        <byra> nope.
        <byra> im listening to the hum of computers
        <Argent-> Well, that always perks me up.
        <Argent-> The comforting whirr of fans, the faint ozone
        smell.. ah, I love that new computer smell you get when you
        buy a new case.
        <Argent-> The slick texture of anti-static bags..
        <Argent-> the clink of mounting hardware
        <countzero> -stop- you're turning me on!
        <countzero> ooh la la.

