        #384331 +(655)- [X]

        <+Badger[49]> ...would you pose nude for, like, a billion
        dollars? o.o
        <+Nightwish> who wouldnt
        <+Nightwish> o_o
        <+Nightwish> then again i'd pose for like 5 cents and a candy

