        #38659 +(2130)- [X]

        <wangsta`> damnit
        <wangsta`> how the fuck do i turn that off
        <wangsta`> everytime someone pastes a link it pops up
        <@Ele|HW> oh?
        <@Ele|HW> http://www.goatse.cx
        <wangsta`> I FUCKING HATE YOU

