        #38703 +(304)- [X]

        *** MC-Magical_Tetris_Challenge is now known as MC-MarioGolf
        <Magisa> do you like
        <Magisa> run all the way over to the computer to change your
        away nick every time you put a new cart in your n64

