        #388717 +(1541)- [X]

        <Jason> One time I walked into my parents bedroom and they
        were having sex, it was traumatizing for them
        <Jason> Not so much that I walked in, but that I started
        shouting "LET THAT BITCH HAVE IT"

