        #38897 +(405)- [X]

        <|JKZ|Silvr|3ull3t> truth:  even tho i hav many girlz 2 choose
        from, i am single b/c i havent found the rite one 4 me
        <Mr`K> Translated from nerdspeak: No girls will go out with me

