        #39095 +(221)- [X]

        <jalex> hmm, they recycled 14,226 lbs. of paper here in Sept.
        <Vco> all porno?
        <cruentus> 14,226 lbs. of pr0n
        <cruentus> what is that, 7 tons?
        <_spartan_> just over
        <roundfeh> heh
        <cruentus> what method is used to seperate the paper from the
        sticky stuff in the recycling process?
        <Vco> cheap immigrant labour

