        #3934 +(450)- [X]

        <maff> I've got a riot breaking out in my pants
        <D1> need some backup?
        <D1> I mean...
        <D1> ok, that was really gay.
        <maff> I don't get down like that d1
        <D1> I apologize.
        <Guilty> Why dont you just join the cast of Oz and get it over
        with D1

