        #395867 +(587)- [X]

        <Stryst> DSP-: You're an idiot, aren't you?
        <DSP-> Stryst: only on days that end with a "y"
        <Stryst> DSP-: In your world all days must end in 'y'.
        <Stryst> Go away moron.

