        #39750 +(186)- [X]

        <picklehammer> im nude right now
        <xooz98> are you hammering your pickle?
        <picklehammer> I was a while ago
        <picklehammer> oh shir I got blood on my keyboard

