        #403378 +(541)- [X]

        <Darkening> something doesn't feel right on my system now i
        just upgraded my nivida drivers
        <Borgs8472> do you sense a disturbance in the force?
        <Borgs8472> "theses aren't the driver's you're looking for"
        <Darkening> ^geek

