        #40487 +(-102)- [X]

        (CountZero) does anyone know where i can find the irc channel
        for bash.org?! plz help thank you
        (Sunk) Hrmm..
        (Sunk) I don't.
        (turb0) no
        (Val[AWAY]) Hrm. Can't recall.
        (D3KK0N) #bearcave
        (Badtz_brx) what is bash.org?
        (Val[AWAY]) #microsoft, maybe?
        *** Kick: CountZero was kicked by Amanda_ (Amanda_)
        (Sunk) ROFL
        (turb0) HAhahahahaha
        (Xanor) lol
        (turb0) that was classic
        (madog) omg
        (Val[AWAY]) :)

