        #405221 +(15513)- [X]

        <T-Wolf> man, my girlfriend left me for some faggot named
        robert
        <RdAwG20> you don't live in Hope mills do you?
        <T-Wolf> ya, why man?
        <RdAwG20> lol, just wondering, was her namne alisson?
        <T-Wolf> you mother fucker

