        #4065 +(214)- [X]

        <Mazroth> ya vodka is potato water, thats why everyone in
        russia drinks it
        <Mazroth> too many potatoes there
        <Mazroth> They have it at mcdonalds, heh
        <Mazroth> in fountains.
        <Mazroth> big mac, large fry, and supersized vodka

