        #4078 +(957)- [X]

        <Mukluk> My lungs hold 650 cubic cenimeters of air. :P
        <Mukluk> I know this because it was measured by a doctor. :P
        <fRy-> WHAT THE FUCK? :P
        <Mukluk> I was told that that's an extremely high capacity. :P
        <Mukluk> I could fucking beat all of you to death. :P
        <DeadRinga> with your lungs?
        <z0rg> Mukluk hahahah
        <Mukluk> Laugh all you like, little-lung. :P

