        #41147 +(-50)- [X]

        * unknown__ (Identdhere@06-135.101.popsite.net) has joined #
        bitchx
        <unknown__> i got a prob
        <unknown__> the time is 5:28am says bitchx, but the time is
        really 6:28am says xwindows, why is the bitchx time off?
        <Ven0m-> its day light savings
        <Ven0m-> ROFL

