        #417027 +(575)- [X]

        R0ry » what shall i get my bro for his bday
        R0ry » he's 25
        bazmalti » an anal probe?
        bazmalti » lol
        R0ry » i said 25
        R0ry » not german

