        #41722 +(300)- [X]

        * }Phoenix{ has joined #haxxors
        <}Phoenix{> Hey, everybody type in /beep 31337 if you wanna be
        super-leet
        <@Tyreal> Dont do it
        <jackle> /beep 31337
        <redwing> /beep 31337
        <GangstaUO> /beep 31337
        <jackle> gah!!!

