        #420926 +(1278)- [X]

        <WooWoo> i was walking through goodwill with my daughter to
        look for costume ideas and there was this stuffed trout adn i
        gave it to her, adn literally, she smacked me with it and
        laughed
        <WooWoo> and i'm like.
        <WooWoo> omfg
        <WooWoo> she just trout slapped me
        <WooWoo> wtf
        <WooWoo> she's not on irc
        <WooWoo> it was all big too
        <WooWoo> like 3 feet long

