        #42687 +(236)- [X]

        (Tome): GRRRGH MAKE ME A MOD SO I CAN KICKBAN YOU
        (griph): you mean an OP?
        (Tome): thatssaone
        (Tome): I WANT AN AMPERSAND
        (griph): you mean an AT

