        #429307 +(2361)- [X]

        KabeDerlin05: Bring it on. I have a level 19 Weapon Master
        that can kick your ass
        KradenTalcaria: ...
        KradenTalcaria: brb
        KabeDerlin05: Yeah that's right! Run Away! Just like your
        mother did when she saw my huge dick!
        Auto response from KradenTalcaria: Mom's using the computer.
        Be back in a few.

