        #4395 +(650)- [X]

        <Predictable> "Peace, love, and Linux" makes me think of a guy
        with excessive facial hair in a tiedye t-shirt, shorts, and
        sandals saying "You can't use that distribution MAN" "You
        can't like, own an OS, MAN"

