        #43990 +(1298)- [X]

        <Bealzubub> yeah.  my mom's going fucking insane with this
        family tree shit.
        <Bealzubub> she been hogging the internet, lookin up all of
        our family incestry.
        <Acherton> lmfao!
        <Bealzubub> ancestry*
        <Ktulu> lmao
        <Bealzubub> damnit!

