        #44411 +(-13)- [X]

        <daralc> going to bed, night
        * daralc is now known as daralc|zZZ
        <daralc|zZZ> hmm
        <daralc|zZZ> i think something is fucked
        <daralc|zZZ> winamp has to buffer shit ..for atleast 5 seconds
        ..that is on the harddrive
        <iHarrison> Hah!
        <Aaron> thats a good indication i think.
        <iHarrison> So much for sleeping, daralc!

