        #44654 +(167)- [X]

        <Xalot> Can Anyone here Help me, I put a CD into my Player and
        It makes a Weird Noice. but no Sound..?..Anyone?..
        <Notice> Is there a Sound Card in there?..As in the
        Computer?..
        <Xalot> ..No...
        <Notice> well..think about it
        * Xalot (Xalot@h24-71-124-70.ss.shawcable.net) Quit (Read
        error: 54 (Connection reset by peer))

