        #44695 +(-27)- [X]

        <durn> are u _the_ r0b0c0d?
        <r0b0c0d> yes bish
        <durn> omfg everyone is talking about u, u ddos attacking
        dalnet??
        <r0b0c0d> is the pope fuckin old?

