        #448978 +(276)- [X]

        <Shortigo> damned CS.. I keep spelling "pearl" as "PERL"
        <Jenny> ahahahaha
        <Jenny> lol
        <Shortigo> ironically I also find the need to add .cx on
        anything ending in "se"
        <Shortigo> "... after examining the fine detailz on the
        base.cx"
        <Jenny> hehe

