        #449764 +(1124)- [X]

        TRAICOVN: so what is your address?
        NightEyes: One moment
        NightEyes: 68.35.199.208
        TRAICOVN: ummmm
        TRAICOVN: no, your real address....
        TRAICOVN: like, where you live.
        NightEyes: That is my real IP address!
        TRAICOVN: 911 address.
        NightEyes: I don't have local phone service
        TRAICOVN: right.
        TRAICOVN: but you have a house
        TRAICOVN: that you live in
        NightEyes: Oh, where I live?
        TRAICOVN: if the RIAA subpoenaed you, what would be the
        address they would arrive at.
        TRAICOVN: Right.

