        #45113 +(462)- [X]

        <phr0work> redhat really fucked you in the ass
        <`KArmA> not yet it hasn't, but its definitely giving me a bit
        of a rimjob and whispering it suggestively

