        #45394 +(634)- [X]

        <Cat`Bored> Would you say it's foolish to make licking one's
        elbow a life goal?
        <Tumbleweed> you've been trying to do for the last ten
        minutes, haven't you?
        <Despot> ...
        <Despot> don't answer that.
        <Despot> please.
        <Cat`Bored> I'm making progress.

