        #45703 +(14)- [X]

        <H1tl3r-H1ms3lf> well im off to fuck up at installing linux
        prolly wont be back
        <H1tl3r-H1ms3lf> nice knowing you all
        <H1tl3r-H1ms3lf> lol
        <Satans_LiL_HeLLper> k cya

