        #45718 +(91)- [X]

        <oneo> sumez this was at the 97' rap olympics
        <oneo> its crappy quality but its the best there is
        <oneo> its all freestyle, some of it is good
        <Sumez> lololololol
        <Sumez> "rap olympics"
        <oneo> he battles a girl in it
        <oneo> whats so funny about that
        <Sumez> the fact that you don't see that is what makes you sad

