        #45783 +(302)- [X]

        <juice> i overheard one of the girls in my dorm saying they
        wanted to win an orgasm competition
        <spinks> who was that Laura?! Would I know them?!
        <juice> they said they wanted to _win_ the competition spinks

