        #46069 +(398)- [X]

        <dsherret> :(
        <dsherret> hey i never noticed this till now if u look at :)
        on its side u can see a face
        <dsherret> tilt ur head to the left and see a happy face :)

