        #46161 +(170)- [X]

        <haz3l> Anyone in here interested in working on a mod? It
        features advanced gameplay with vehicles as well
        <toad-> haz3l, yes
        <toad-> and by yes I meant get the fuck out
        <haz3l> toad
        <haz3l> pm

