        #47060 +(428)- [X]

        <@PhatBob> try smoking bud with pubic hairs in it, now that
        shit fucks you up
        <@neotek> if you're smoking your pubic hairs, i'm PRETTY SURE
        you're already fucked up.

