        #47586 +(169)- [X]

        <Abstract> must be nice to have an employer who pays you
        <lophyte> it is..
        <lophyte> your employer don't pay you?
        <Abstract> nah my clients suck major ass
        <Abstract> and i hate them
        <lophyte> lol
        <Abstract> and the only thing i will ever code for them again
        is a spoon so they can eat my ass

