        #47647 +(821)- [X]

        <k3tty> nfi
        <APULYG> Whats nfi?
        <TBC> no fucking idea.
        <APULYG> Well shut up then if you dont know
        * TBC beats the crap out of APU for being s00pid.

