        #4765 +(234)- [X]

        <m00cow> i'm downloading mozilla rc1
        <m00cow> i wonder what its like
        <m00cow> i hope mozilla uses its firebreath on microsoft
        <m00cow> then eats microsoft
        <m00cow> then poos micro soft poopoos
        <DCBastard> uh-huh
        <DCBastard> how many cones have you smoked tonight?

