        #477397 +(1601)- [X]

        <Vash> /ctcp Bot doit passwd <command>
        <Vash> try it!
        <Kao> okay
        -> [Bot] DOIT passwd msg #scripting I love babies
        <bot> I love babies
        -> [Bot] DOIT passwd /run shutdown -r -t 3 -c "byeeeee"
        <Vash> ohhh
        * Vash has quit IRC (Connection reset by peer)
        * Bot has quit IRC (Connection reset by peer)

