        #47776 +(314)- [X]

        <Sevastra> nasýlsýn?
        <RadioheaD> iyiyim sen
        <Sevastra> <-- Ýstanbul
        <RadioheaD> oðlum türkmüsün deðil misin
        <BLiZZ> <-- Wýll kýck your arse ýf you don't shut up

