        #47945 +(252)- [X]

        <shane_work> socks go before shoes, underwear goes before
        pants, condom goes before penis
        <shane_work> whahoo
        <nem0> ...i don't think you can put the penis on AFTER the
        condom, yo

