        #48435 +(164)- [X]

        <Nike> i swear, my MP3's get scratched
        <Loop> probably nike
        <Nike> like i got a really annoying little brother sim
        wandering around my home directory

