        #48505 +(790)- [X]

        Jigglyjuff: that's worse then that peanut, butter and jelly
        sandwich i hear all americans like
        <CHAT MattDavis>  no
        <CHAT MattDavis>  peanut butter
        Jigglyjuff: oh! that makes much more sense

