        #48771 +(-105)- [X]

        * Pelayo BGM: !! (illegal) Cute 12 Year Old Being Taught By
        Daddy -- Fisting Incest Child Teen Preteen Lolita Young Gay
        Porn Beast Peep Mpeg Mpg Jpeg Jpg Mp3 Avi (6)(2).mpg

