        #48886 +(30)- [X]

        (PrinceDC): incase you didnt see them all
        (PrinceDC): theres girls sucking my dick in the pics
        (DownKaos): thats almost as cool as curtis's with the dog
        licking the peanut butter off his....
        (DownKaos): n/m

