        #49514 +(346)- [X]

        *** Malach has changed the topic on #nz to If your parents get
        divorced, are they still cousins?
        <lower> Shouldn't it be "If your parents get divorced, are you
        still your own cousin?"
        <Malach> lower - you inbreed your way, I'll inbreed mine.

