        #49583 +(43)- [X]

        <SiCkNeSs-> <-------fucking maggot slipknot fan!!!
        <SiCkNeSs-> got my own channel!!!!!
        <SiCkNeSs-> >=)
        <dreamHOBO> i believe you mean fucking faggot

