        #49897 +(183)- [X]

        <Mr_Saturn> my girls gone wild is almost done downloading
        <Mr_Saturn> i wish my laptop worked, i could go watch it in my
        room
        <`Tony`> lol, get real porn :P
        <Mr_Saturn> ive got that too
        <Mr_Saturn> but sometimes i just like too see the real stuff
        <Mr_Saturn> not acted out shit and pornstars
        <Mr_Saturn> like natural hot chicks
        <Mr_Saturn> you know what i mean
        <`Tony`> Yea...
        <`Tony`> get a girlfriend :P

