        #50039 +(46)- [X]

        <RingLass> wow ... too much bash.org ...
        <RingLass> kazaa lite has an add that says "Don't Share
        Unprotected" and I did a double take reading it before I
        realized they were talking about computers ...

