        #50649 +(344)- [X]

        <g9icy> heh, opposite my old house there was this massive
        field...i used to find all sorts on there, old needles (didn't
        touch), used jonnies...cars...bikes...etc
        <Xanothis> are you implying you touched the used jonnies?

