        #50729 +(27)- [X]

        <Justn> I cant wait till the summer i'll be working out so
        much... I'm gonna be ripped!
        <Ian_540> maybe working out will give you big muscles, but it
        won't make your small dick any bigger

