        #507722 +(3438)- [X]

        EvilEye:i just found out that i have competition for student
        government president
        EvilEye:hes blind
        EvilEye:so heres my campaign slogan: "I have a vision"

