        #508598 +(2444)- [X]

        <nJess> God that stings like a motherfuck
        <nJess> I just picked up my airsoft
        *** Kederaji has joined channel #C&T
        <nJess> And it discharged, into my face.
        <nJess> At a range of about a foot and a half.
        <Kederaji> O_o
        <Kederaji> I always walk in at bad times.

