        #50927 +(886)- [X]

        [ @Kruegel ] CharCoal69 what version of mIRC do you have?
        ***Approximately 18 Minutes Later***
        [ +CharCoal69 ] NINETY
        [ +Hammer[pth] ] haha, I don't know what was funnier
        [ +Hammer[pth] ] the latency of the reply, or the reply itself

