        #511422 +(2651)- [X]

        <Dejos> I was killed by a rabit in D&D once
        <Wiser> lol
        <Dejos> stupid DM
        <recursive> did it have big sharp pointy teeth?
        <recursive> \/\/\/\/\/
        <Dejos> no! it didnt have squat.. I tripped over it and fell
        off a cliff

