        #51382 +(647)- [X]

        *  magicsmoke  returns with a mug of coffee that is still
        almost black after adding milk
        kiri : lol
        kiri : that's some heavey coffee then
        magicsmoke : i could say that the spoon is standing up in it..
        magicsmoke : but i can't see the spoon. i think it's dissolved
        Alpha1 : There is no spoon

