        #513914 +(-22)- [X]

        <@SuzyQ> NOVACAINE FOR THE SOUL
        <&supreme> I LOVE POTATOES
        <@nf-Stealth> CARROTS ARE GOOD FOR EYESIGHT
        <&sinSR> ALWAYS WEAR PANTS
        <&supreme> DONT LET DR MARIO TOUCH YOU, HE IS NOT A REAL
        DOCTOR

