        #51432 +(74)- [X]

        Kaji: "i think willingly putting your child in a porno comes
        under the catergory of unfit parent"
        Jallil d'lil 'anonen: depends on the kind of porno...if it
        were snuff yeah, but the real classy kind is okay
        Kaji: ...mmk
        Jallil d'lil 'anonen: pretend I didn't say that
        Kaji, Maelthra D' Llaren: i will..

