        #516497 +(1623)- [X]

        <Linforcer> heh, I just told m girfriend I like my women like
        I like I like my programming
        <MuStR>     logical?
        <Linforcer> C++
        <mkde>      LOL
        <MuStR>     rofl are you serious?

