        #52112 +(1260)- [X]

        <Billo3121> i need to douche my asscrack in the shower
        <Billo3121> later dudes
        * Billo3121 is now known as Billo|douching
        <@trollusk> ... that's it. i'm done with irc.

