        #52989 +(482)- [X]

        <flawed> i bet #mensa is like #lesbians .. except it's a bunch
        of retards pretending to be smart, instead of a bunch of guys
        pretending to be lesbians.

