        #5309 +(266)- [X]

        <Zexion> Jewdass: well thats what I do when I want to get
        totally wasted... get some GOOD pot and drink a LOT of GOOD
        vodka
        <|Ogreboy|> <Zexion> we call those weekdays

