        #54048 +(228)- [X]

        <Afsan> the question is.. would the fbi suspect a terrorist
        from a university in Australia?  arn't we ment to be the good
        guys?
        <Gothmog> we're everywhere...
        <Gothmog> i mean...
        <Gothmog> _they're_ everywhere
        <Gothmog> phew lucky save there
        <Afsan> yes you almost exposed us!
        <Afsan> one of your camels must now be castrated!

