        #5473 +(265)- [X]

        <ExCon> ihave one wish b4 i goto army rho :)
        <ExCon> op for 1 day :D
        <[SuN]> im not that soft :P
        <ExCon> what if i die and never come back ?;D
        <[SuN]> ill make a bot called ExCon and give it ops
        <ExCon> oh..i feel honored
        <ExCon> :D
        <[SuN]> ;)

