        #554909 +(130)- [X]

        <boon> today started out so aweful
        <boon> I got up early, poured a bowl of cereal, OJ...I was
        set. Had 45min until I had to leave for work.  I thought I'd
        go downstairs and grab the laundry from the dryer before I
        started eating
        <boon> I get to the bottom of the stairs and *slam*...the door
        to my place closes behind me
        <boon> SCREWED
        <Kammo> oh, no! You had to open the door?!

