        #562344 +(1637)- [X]

        <DarthFoamy> Ah, unstable connections
        <DarthFoamy> How do I despise thee?
        <DarthFoamy> Let me count the ways!
        <DarthFoamy> 1
        <DarthFoamy> 2
        * DarthFoamy has quit IRC (Quit: Ping timeout)

