        #56865 +(97)- [X]

        <SlimSurdy> remind me never to cyber a 16yr old using bitchx
        under
                             linux with no pvt msg windows
        <SlimSurdy> at least not with you fuckers in the #
        <Fanboy> hahaha

