        #5699 +(454)- [X]

        <Thrash|Zzz> YAY HARRY POTTER ON DVD
        <Khross{killme}> O_O
        <Khross{killme}> I WILL BE BACK SHORTLY
        <Khross{killme}> Oh wait I'm heterosexual.

