        #57171 +(749)- [X]

        <SMW> howdy Ian
        <SMW> how you doin tonight?
        <Ian_Sharpe> same as always
        <Ian_Sharpe> still smoking
        <Ian_Sharpe> drinking too
        <Protector> Seems you have something against internal organs
        that begin with the letter "L"

