        #572822 +(479)- [X]

        <seelet> the frat house down the road doesnt even have wep on
        <seelet> wtf
        <HaLLuCiN0> maybe they are to busy drinking beer, smoking
        weed, and fucking chicks
        <seelet> :(

