        #575675 +(1647)- [X]

        < pin> so on saturday i was at a bar
        < pin> telling a friend about how i played world of warcraft
        that day
        < pin> and this girl was like.. are you talking about world of
        warcraft?
        < pin> then i found out she played alliance and stopped
        talking to her
        < pin> dumb cunt

