        #577240 +(2165)- [X]

        <spree> i wish i had a southern accent
        <shy> gday mate
        <videogameaholic> not that southern
        <shy> hola amigo
        <videogameaholic> getting closer
        <shy> howdy yall
        <videogameaholic> close enough

