        #57823 +(426)- [X]

        <DrT> i was on that cruise once.  got really drunk and fucked
        mini mouse
        <katlizy> mini mouse?
        <katlizy> is that not just a little kinky?
        <DrT> freaked me out when the fake head came off.  turned out
        to be a really nice guy though

