        #58115 +(138)- [X]

        <KungFuGrp> CABLE
        <KungFuGrp> It's ALIVE!!!!!!
        <KungFuGrp> the cable man didn't say anything about the warez
        cds, but he kind of got mad cause of the black box plugged
        into the tv
        <Wilamena> haha

