        #585661 +(-1040)- [X]

        <Blaxthos> you know what
        <Blaxthos> DO YOU KNOW
        <Blaxthos> i'm slightly ashamed
        <Blaxthos> but
        <Blaxthos> then i remember being 7 yrs old
        <AltSnooze> you peepeed in your pants again?
        <Blaxthos> dancing with mom
        <Blaxthos> Elton John - I'm Still Standing.mp3
        <Blaxthos> i still love that song
        <chilly> did you uncle touch you in funny places?
        <Blaxthos> no :(

