        #58630 +(14)- [X]

        <bi0cide> this is rad
        <bi0cide> its erotic magnetic poetry
        <bi0cide> im getting off just reading the words
        <bi0cide> errr
        <bi0cide> :|

