        #588216 +(467)- [X]

        punch: ugh, i feel like im in a time warp
        punch: working on a pentium 200 webserver
        punch: fixing a customer's pentium 2 233 machine
        punch: loading win98se on it
        OSSThe: ewww
        punch: i am in some sort of late 90s hell

