        #59329 +(168)- [X]

        <@Hellfire|RS> ... BET has nightly news now?
        <@Rei> "And to close, remember, MLK Jr Day is only 234 days
        away and keep it real, yo. Tonights credits will be done by
        Jameriquai and remember to tune in tomorrow morning at 6:00
        for your AM dose of ethnic stereotypes."

