        #60271 +(426)- [X]

        <@Pimp-Jojo> mc... i saw a guy in a wheelchair begging for
        money and playing a flute
        <@Pimp-Jojo> couple of hours later i saw him gettng chased by
        the police on foot
        <@Pimp-Jojo> i mean wtf
        <+_Mc_> still doesnt beat my tramp with the cardboard cutout
        banjo

