        #60459 +(337)- [X]

        <MikeSweetser> FWIW, 1/1/2003 is essentially the 20th
        anniversary of the Internet.
        <MikeSweetser> Basically, the day that ARPANET switched its
        protocol to TCP/IP.
        <kuribo> MikeSweetser: in unrelated news, 1/2/2003 is the 20th
        anniversary of warez :)

