        #608088 +(-111)- [X]

        <ShoveX> but i bet you make more money then me
        <ShoveX> :(
        <jd2i9> hahahaha
        <jd2i9> maybe
        <jd2i9> i dunno, im not exactly making top $ for my computer
        skillz
        <ShoveX> i've been getting my money from giving old people
        oral
        <jd2i9> ive been selling shit on ebay
        <jd2i9> hahahah
        <ShoveX> bengay makes your mouth numb btw

