        #611458 +(-395)- [X]

        <ToasterIron> guys check it out i'm going to be this awesome
        scientist
        <ToasterIron> one day i'm going to invent a base the only
        melts jews on contact
        <ToasterIron> i'll call it holocaustic
        <Tristain> "DO NOT CONCENTRATE"

