        #6150 +(211)- [X]

        <Babydog> ew yeah butt hair is horrit
        <Akira_S> yeah, so shaving down there's a must
        <alisdair> that seems like a lot of work
        <Eulogy_> like hell i am going to shave my ass
        <Stifler> thats why they get their boyfriends to do it
        <Eulogy_> if i can't see it, i ain't putting a razor near it

