        #615496 +(2086)- [X]

        <Rebbel> Man Google Earth is awesome
        <Android18> Why?
        <Rebbel> Im looking at my house
        <Rebbel> brb, pizzas here
        <BFMV> Now thats what i call technology

