        #62044 +(235)- [X]

        <hpr-vb6> $2 bills pwn
        <Cracker`tv> KEEP THE 2S!
        <[LIQuid]> why?!
        <Cracker`tv> take them to strip clubs when you get older...
        strippers dont look too hard and they think they're
        twenties!!!

