        #623969 +(30)- [X]

        <Freman> I just asked my boss why he's doing all the new
        gigabit runs in cat5 (not even cat5e) instead of cat6e... the
        fool replies and says "cat6e has bugs in it"....

