        #62476 +(673)- [X]

        <bhlaab> I want to learn sexual education via the internet! I
        know what to do! I'll search for "sex" in google! It will be
        an educational journey of science.
        <bhlaab> 202,000,000 entries found! I will learn a lot!!

