        #625995 +(362)- [X]

        <shok-> ha! just yesterday I was wondering why more solar
        power applications aren't being built
        <shok-> but they are in Shanghai.
        <shok-> oh communists, what won't you do?
        <Ben^> last for more than a century?

