        #62632 +(954)- [X]

        <prence> oh fuck oh fuck man
        <prence> my mom got this new canon digital camera today and
        they are asleep so i took a picture of my cock and i can't
        figure out how to delete it
        <prence> fuck what the hell do i do?!

