        #62659 +(184)- [X]

        <Akinaga> I skipped my wedding to play Tribes
        <Akinaga> comeon, it was a match for the #2 spot
        <apollyon> at that point you really need to rethink why you're
        alive
        <merc> or just dump the bitch =)

