        #62770 +(297)- [X]

        <|SoliD|> dude, i think i'm gay
        <The_Loserkid> WTF ?
        <The_Loserkid> plz don't tell me how you found that out
        <|SoliD|> i downloaded some gay porn just for fun
        <|SoliD|> i put it on for a minute or two, just to check it
        out
        <|SoliD|> suddenly i get a boner
        <The_Loserkid> i hate you :'(

