        #628411 +(2964)- [X]

        <b3nz0rz>: A lady came up to me on the street, pointed at my
        suede jacket and said, "Don't you know a cow was murdered for
        that jacket?" I said "I didn't know there were any witnesses.
        Now I'll have to kill you too".

