        #62877 +(1540)- [X]

        <Dilbert> hahah today was so funny.... me and my sister were
        watching TV, and i wanted her to change the channel so i said
        "COME ON!" and she goes "Dont 'come on' me"
        <Dilbert> then she didnt get why i burst out laughing
        <APE_> is she hot?
        <Dilbert> yes
        <Dilbert> my sister is very hot
        <Chris_Walken> ....................
        <ragnarok2040> ............
        <ragnarok2040> i hope she doesn't check bash.org
        <Dilbert> why?

