        #6326 +(371)- [X]

        [during the Olympics]
        ted: everytime i load my yahoo it seems the US has three more
        medals
        craig: Stop reloading then!!! Canada has to catch up

