        #640489 +(673)- [X]

        <chicken_on_fire> i jammed my memory stick backwards and
        shorted out the mobo
        <Mouser> o shit
        <chicken_on_fire> what're the chances of that happening?
        <Mouser> 1/1, apparently

