        #644234 +(631)- [X]

        <Daniel> I am from Texas.
        <Daniel> I do not consider myself an American.
        <DragonAtma> That's okay
        <DragonAtma> As we wish texas wasn't part of the US

