        #6505 +(260)- [X]

        <jeremiah> the other day, we were sitting there in class
        during an awkward pause and the teacher was feeling all proud
        of himself [...] and I say: "so mr critzer, when are you going
        to get a real job?"

