        #6508 +(-21)- [X]

        [1:02pm] <+weeve> now kthx bye now you don't exist on my
        harddrive or in my memorys anymore try not thinking your a 22
        year old mack with a good job and gf and accept who you are I
        am 6'8 and 245 I'm a black belt in ju jitsu unlike you lieing
        kiddies wanna spar come to me I'm bored now
        [1:02pm] weeve «~Eden@ip68-10-94-135.rn.hr.cox.net» has Quit
        iRC (`docno==liar I love kiddies:) kthx)

