        #6514 +(254)- [X]

        <monami> hm, these girls sure are fat
        <QJ> where where?
        <monami> can you look at pictures of fat naked girls wherever
        you are?
        <QJ> yes
        <QJ> it's in my contract

