        #655055 +(992)- [X]

        <Heiler> I feel stupid asking this, but how many pints are in
        a cup?
        <Swinky> it depends on how big the cup is
        <Heiler> Thanks, suddenly I don't feel so stupid.

