        #6565 +(316)- [X]

        <barkode> it's all about getting drunk at defcon, and waking
        up the next morning in a ditch, with a TRS-80, a wireless
        modem, a
        sombero, a pair of high heels, an angry midget and you're
        dressed like a mariachi.

