        #65677 +(566)- [X]

        [12:10] <KeeperX> Uptime: 1w 6d 30m 27s 74ms
        [12:10] <KeeperX> that is what you can do with windows uptime,
        boys and girls.
        [12:54] <KeeperX> HOLY SHIT, THE COMPUTER'S ON FIRE!

