        #65803 +(398)- [X]

        <Kazeuri> That would roxor to live in a cave back in the day.
        I would still rather be a pirate though.
        <Kazeuri> I guess I have to settle for internet pirate. Yarrr,
        sail the seven ISPs.

