        #659223 +(247)- [X]

        [GOD]Smithereens> Condoms are VERY good if you don't have any
        water balloons near you
        [GOD]Smithereens> Don't EVER try the other way around though.
        Xyranius> It's not fun>_<

