        #6601 +(305)- [X]

        Fred> This computer deserves to go to hell
        Max>  Dont you mean Siliconhell?
        Fred> What ?
        Max> Its the place where all dead calculators go to
        Fred> Really?

