        #665959 +(344)- [X]

        spaceinvader455: heh
        spaceinvader455: I saw lake house yesterday
        spaceinvader455: and when they first started trading letters
        spaceinvader455: (the guy that lives in '04 and the girl that
        lives in '06)
        spaceinvader455: I thought to myself, "Ok, first letter, So,
        how was star wars episode III?"

