        #670334 +(748)- [X]

        JakerzInc> so here i am
        JakerzInc> logging into irc
        JakerzInc> and the first thing I see is "hard throbbing cock"
        Anfael> that's normal, that's how you know it works

