        #672030 +(333)- [X]

        <BackF> like a month ago, i moved my mousepad to the left of
        the keyboard
        <BackF> to practice, i wanted to switch mouse-hand.
        <BackF> so, when i got used to it, i went and bought a
        lefthandmouse
        <BackF> i spent 2 hours wondering why i was rightclicking all
        the time

