        #672235 +(901)- [X]

        <Method> good evening gentlemen.
        <Method> would you like to play a game?
        <Method> It's called "guess what intoxicated state I'm in".
        <Method> It's really fun.
        <Method> on a scale of 1 to 10, with 1 being the least, 2
        being the most, and 10 being somewhere around the middle...

