        #6753 +(170)- [X]

        <CyberPunkWanabe> I broke my new stereo that I got after
        christmas cause I broke the one I got for christmas..
        <CyberPunkWanabe> I shouldnt be allowed within 10 ft of
        electronics

