        #676801 +(816)- [X]

        <tokenshi> does anyone seriously use realplayer anymore?
        <mef> yes
        <Freddie> I thought they died :o
        <RvLeshrac> They're doing extraordinarily well
        <tokenshi> i believe i still have an audio clip buffering from
        1999 in realplayer

