        #6810 +(19)- [X]

        <Funicide> oh oui oui merci oui oh oui merci
        <Funicide> awwwww oui
        <Unill> french?
        <Funicide> thats the sound of 2 gay dude humping in paris

