        #6875 +(184)- [X]

        <Guest11734> Hello! I can redirect all your bot op request,
        even BETWEEN
            networks. Just type /msg Guest11734 op [botnick] [channel]
        [password],
            and I'll fix it for you!

