        #6911 +(268)- [X]

        <CapnKev> btw, chicks really dig a man with a palmpilot.
        <goosedaemon> really?
        <piman> Yeah. Do they politely excuse themselves rather than
        blatently run away?

