        #69326 +(641)- [X]

        <Huge_Spatula> I wanted to submit a mistake from "The Man in
        the Iron Mask" to www.moviemistakes.com that said, "Watch the
        scenes that feature Leanardo Dicapprio carefully. He can't
        act."

