        #69383 +(502)- [X]

        <bad_carpet> false alarm
        <bad_carpet> My uncle wouldn't care if I was IRCing
        <bad_carpet> I'm just embarrased.
        <bad_carpet> to be found doing so
        <bad_carpet> Imagine what they'd think if they knew a 25 year
        old man calling himself bad_carpet was talking to a 19 year
        old man calling himself, 'muffin'

