        #697182 +(423)- [X]

        BlackFridayXRule: dude, find an asian party, i want to hook up
        with an asian chick
        ziggyzhang5: asian party, no such thing
        BlackFridayXRule: oh sorry, i meant lan party

