        #7066 +(314)- [X]

        <Ein|sk00l> Goddammit.
        <Ein|sk00l> Is it too much to ask for ONE hot shower a week?
        <Staberinde> Yes
        <Staberinde> But then I live in California
        <Staberinde> Where its too much to ask for electricity at
        least once a week

