        #707847 +(757)- [X]

        <nefzen539> What's wrong with maroon 5?
        <pr0nstar> They're a boyband, girls like boy bands
        <nefzen539> based on the evidence... i must be gay
        <pr0nstar> it does seem likely...
        <nefzen539>It must be that every male i've come into contact
        with is horrendously ugly cos i haven't been attracted to any
        <pr0nstar> as unlikely as that sounds it is more likely than a
        straight male liking maroon 5

