        #7126 +(271)- [X]

        <Kash> MY BUM IS ON YOUR FACE
        <Kash> MY BUM IS ON YOUR FACE
        <Kash> LOOK AT ME
        <Kash> MY BUM IS ON YOUR FACE
        *** Kash was kicked by da_slog (ITS NOT VERY PHUN)
        <CrashCat> MY FOOT IS ON YOUR BUM

