        #713081 +(883)- [X]

        <@Raekiel> .....just had a very blonde moment
        <@Raekiel> was lighting the stove and accidentally burned
        myself
        <@Raekiel> and for a very brief moment
        <@Raekiel> wondered why the fuck the flames were so hot, as I
        had it on low....

