        #715634 +(-52)- [X]

        <Chelz> I type too fast and piss people off 
        <Korox> i fail to see why people would be pissed at this
        <Korox> i like it when other peeps type fast
        <Chelz> lol
        <Chelz> Some people are like, "I CAN'T KEEP UP"
        <Chelz> lol
        <Korox> pfft, thats cuz theyre... uh... DAMNIT!
        <Korox> theres a sexual joke in there somewhere, and i cant
        get it!

