        #72657 +(284)- [X]

        <CapnHardcastle> do the ppl on bash.org randomly move from
        chat server to chat server taking ppl's comments out of
        context or do they sit on just one server?

