        #727509 +(1325)- [X]

        <karrde> i asked Windows to delete 36 000 files from a
        directory, and i ve already waited for 15 minutes and nothing
        resultes...
        <LoL> it is preparing 36 000 "are you sure?" windows

