        #729283 +(1407)- [X]

        Trev: dang baby did i tell u that u looked FINE today!
        Trev: u looked likea dime
        Trev: that was so sexy i just couldnt stand it
        Grace: thanks trevor, you're lying
        Trev: nooooo u were beautiful
        Grace: trevor I was absent today
        Trev: o

