        #73081 +(181)- [X]

        <Taerom> "On tonight's headlines, Tony The Tiger is arrested
        for sexual assault. He would not comment on the charges,
        except to say: It's rrrrrrrrrrrrape!"

