        #7334 +(500)- [X]

        <NihiMetal> I saw my first porno when I ws 11
        <NihiMetal> It had tons of lesbian sex and stuff
        <NihiMetal> I use to think that women did that shit with each
        other all the time
        <NihiMetal> You never look at your mother and the preachers
        wife the same after that

