        #7423 +(318)- [X]

        <Vada> is it bad when you are at work and someone that is
        being rude says something to you and you all of a sudden see
        YOU FRAGGED SOANDSO about their head?

