        #744013 +(1098)- [X]

        <kidd79> do u know what i'd like they add to Google.Earth?
        <Don_Vito> ..3D graphics?
        <Don_Vito> animated water, trees and stuuf??
        <kidd79> orbital ion cannon

