        #74533 +(1165)- [X]

        (@OriX): "Shaggy, you Scoob and Velma go downstairs and check
        the basement; Daphne and I'll go upstairs and check the
        bedrooms".
        (@OriX): Freddy, you magnificent bastard.

