        #745889 +(506)- [X]

        <nista> i was explaining to a claimant why a defendant was
        being sued
        <nista> i told him that the defendant violated a federal
        statute
        <nista> he said "VIOLATED A FEDERAL STATUE?!? WHICH ONE, THE
        LINCOLN MEMORIAL?!?"

