        #7464 +(255)- [X]

        <Poltergeist21> I want to fuck the olsen twins right in the
        ass!!
        <Poltergeist21> Dude, my balls goin smack smack smack against
        their teen asses..yum yum!1
        <Charlesowns> Dude, i said that ten years ago!

