        #74691 +(303)- [X]

        <Gartt> hows the job hunt going?
        <Lubey> lol not too great
        <Lubey> theres sod all
        <Gartt> I hear mcdonalds are looking for hard working
        enthusiastic individuals
        <Lubey> id cook my own dick before working in a mcdonalds
        * Kittie-Ash hands Lubey a small guillotine
        <Lubey> small?!?!?!?!!??!

