        #75282 +(-23)- [X]

        mzazchw: just then i felt my side
        mzazchw: and i was like "why do i have a scab???"
        mzazchw: then i looked at it
        mzazchw: .............................
        mzazchw: .... it was dried cum

