        #75369 +(671)- [X]

        <Tsunemori> I could barely kept myself awake during the
        lecture....... but here I am......
        <Serajadeyn> what lecture was it?
        <Tsunemori> Introductory lectures to teh various subjects
        we'll be taking
        *** Shadowcon (~Shadowcon@12-230-182-225.client.attbi.com) has
        joined #mtartanddrawing
        <Tsunemori> Three people went for one hour each, but this last
        guy did it all in 10 minutes. I love him
        <Tsunemori> I think Shadow will misunderstand what I'm saying.

