        #76045 +(230)- [X]

        <sexygurlah> well ya he's kinda nice n everything..
        <mAdmAn6> i guess its ok with you
        <sexygurlah> we had sex together already, it was pretty great,
        actually
        <mAdmAn6> oohh.. thats fast
        <ohlyo> erm, now i wanna get laid.
        <sexygurlah> one thing annoys me - my balls slap so hard when
        i'm having sex with him
        <ohlyo> o_O
        <mAdmAn6> ugh. you still wanna get laid?

