        #763087 +(508)- [X]

        <ganked> Did the doctor give you your test results?
        <ct> Yeah. Looks like all those years of phone sex caught up
        with me.
        <ct> I have hearing AIDS.

