        #763160 +(1619)- [X]

        <Will T. Rex> So, at the pub last saturday
        <Will T. Rex> Really bogan pub, with pool and AC/DC on the TV
        jukebox, at 3am in the morning... my nerdy friend says very
        loudly "NEED MOAR BEER!"
        <Will T. Rex> with emphasis on the 'moaaar', because we are
        nerds
        <Will T. Rex> ... and out of nowhere, some random dude screams
        "WE ARE ANNONYMOUS, WE ARE LEGION"
        <Will T. Rex> Fucking terrifying

