        #765717 +(349)- [X]

        <DirkGently> IBO's about to turn into a OS war zone.
        <iDno> no because...watch this
        <iDno> Im going to do something that NO mac user is capable of
        doing.
        * iDno drops it.

