        #767958 +(1466)- [X]

        <Maniaman> so lets say i have a date
        <Andares> Who's the lucky girl?
        <Maniaman> if that date occurs between 2 dates in a single row
        in a database

