        #7709 +(550)- [X]

        <Logomancr> although I don't know how reliable plasma screens
        are
        <Logomancr> I wonder if I punched a whole in it when running
        if "plasma" would leak out, in a very star trek moment
        <Logomancr> ;P
        <Logomancr> "hello fire department, I have a plasma leak in my
        reactor coils"
        <lev|> "on screen"
        <Logomancr> "no no, I'm talking about my TV"
        <renholde_> maybe if we modify the deflector dish
        <Logomancr> that would be so l33t

