        #7711 +(460)- [X]

        <sc1> the video was compressed at 5fps
        <sc1> jesus this sucks
        <asmodius> Jesus can't help with sucky frame rates. Trust me
        on that one.
        <asmodius> He's pretty useless when it comes to video
        compression rates.

