        #778027 +(-203)- [X]

        <@Pugh> i'm gonna make a media player that plays EVERYTHING,
        for FREE, and can rip to EVERY common type of media without
        DRM.
        <@Pugh> I shall call it........hammertime

