        #7780 +(755)- [X]

        <DarthN> so.. ana... did she touch your... "railgun"?
        <ana_class> dude
        <ana_class> seriously stfu
        <faustwork> lol
        <faustwork> did you shoot plasma?
        <DarthN> HAHAHAHA
        <DarthN> ROFL
        <chaoworky> haha
        <DarthN> omg hahaha
        <ana_class> are you all in second grade still?
        <chaoworky> i think he fisted her with his gauntlet
        <DarthN> omg

