        #7947 +(546)- [X]

        <fvdl> How can one fuck and wank and the same time?
        <cjs> It's a secret the English have kept for centuries.
        <mothra> tell fvdl: you're fucking her, but thinking of your
        hand.
        <d@n> "oh, hand!  i mean cindy!"

