        #8003 +(133)- [X]

        <Jon-> tom
        <Jon-> imagine if your ISP pulled cable
        <Jon-> what would you do?
        <mewse> quit irc?
        <mewse> HAHAHAHAHAHAHA
        <mewse> hah.

