        #802023 +(1924)- [X]

        <rawrkitty> so today i did something awesome
        <rawrkitty> i set a bag of shit on fire
        <rawrkitty> and it smelled like shit
        <Tabi-chan> How'd the person react?
        <rawrkitty> huh
        <Tabi-chan> The person who's porch you left it on
        <rawrkitty> why the fuck would i do that? thats stupid

