        #80795 +(164)- [X]

        (This is before any form of invasion of Iraq occurs, if any)
        <Stonefish> I reckon the Bush vs Hussein knifefight they were
        talking about would be quite entertaining.
        <PuMbAaA_rx7> yeah
        <PuMbAaA_rx7> Hussein would kick ass
        <PuMbAaA_rx7> bush is a pussy
        <Stonefish> Don't discount his monk3y skillz
        <PuMbAaA_rx7> lol
        <Stonefish> you ever seen a pissed off monkey with a knife?
        <PuMbAaA_rx7> can't say I have
        <Stonefish> good point...
        <Stonefish> brb - monkey

