        #81138 +(315)- [X]

        <@Lurker> live pics from baghdad on cnn
        <@Lurker> nothing happening
        <schitzo> nope nothing going on
        <@Lurker> We should just go to an iraqi irc channel and when
        they ping out the war is on

