        #8144 +(206)- [X]

        <Naivete> damnit whenever I see the word 'mount' in linux
        documentation I think UNF
        <Vertinox> "...Take hard drive, lube it with proper amounts of
        kY..."

