        #82112 +(319)- [X]

        <NES> In about 1-3 grades we used to have long peeing
        competitions
        <NES> To see who could continue peeing while taking steps back
        from the urinal
        <NES> Those bathrooms were a damn mess, hahe
        <Kufat> NES I would like to remind you that your GIRLFRIEND is
        in this CHANNEL at this time.
        <NES> shit, you're right

