        #82229 +(255)- [X]

        Sugarhigh0307: i spent 9 months of my life tryin 2 get out of
        a pussy and the rest of it tryin 2 get back in
        Sugarhigh0307: thats what this kid just said to me

