        #82223 +(-96)- [X]

        * Robzy spins round in his chair
        * Robzy falls off...
        * Robzy hurts his head
        <Robzy> ouch.
        * Robzy obviously needs sleep...
        <Robzy> Neways....

