        #8278 +(279)- [X]

        <the__man> does anyone know if any brothel is open at this
        hour? i need some action right away
        <+Octane> the__man: you've been blessed with two hands and ten
        fingers. go figure it out.

