        #833 +(925)- [X]

        <timmo> i got a lego fetish whats it to ya?
        <iMike-> damn norwegian toy companies
        <McMoo> it's danish
        <iMike-> what the hell is that
        <iMike-> danland?

