        #847500 +(240)- [X]

        <+Clive> news.bbc.co.uk headlines: Police are searching bins
        in a bid to find fresh clues in their hunt for missing
        schoolgirl Shannon Matthews.
        <+Clive> So... they're looking for a laden bin?

