        #8496 +(360)- [X]

        [dodgelap ] fuck
        [dodgelap ] work didnt put my pay into my account
        [dodgelap ] wtf is goin on ?
        * Synoptica thinks of 'Milton' from office space

