        #8499 +(252)- [X]

        <Tippytoes> i have kids in the room
        <Tippytoes> is it safe to look at?
        <bark> i don't think they mention any words like CUNT on that
        page, no
        <tm> just hide it behind your anal porn

