        #85402 +(225)- [X]

        <enid> laz. sounds like you just need to get sex.
        <enid> hold on, i'll scan my tits for you.
        <^Laz> yeah... theres been a serious lack of that lately for
        me
        <^Laz> lately being the last 20 years

