        #85403 +(1820)- [X]

        <Curufin> You know, I think there's a point in your life when
        you realize that life's just not worth it anymore. When you're
        giving more than you're taking, and there's just no joy left
        in life.
        <Eldamehomework> Curufin; that's what ice cream is for :-D
        <Curufin> I'm lactose intolerant.

