        #8543 +(14)- [X]

        <DeadsouL> poke
        <T-Broken\w> *giggle*
        <T-Broken|w> *giggle*
        * DeadsouL boots T-Broken\w in the snatch for giggling like a
        sissy
        * DeadsouL boots T-Broken|w in the snatch for giggling like a
        sissy

