        #8672 +(206)- [X]

        <Duck[STFUF]> you know ath, why did you change your name to
        avin...A, V, I and N are pretty much as farthest they can be
        from one another:<
        <Jumper|TMC> BECAUSE IT'S HIS NAME

