        #870 +(1455)- [X]

        <Cducharme> My clock be off bigtime
        <Cducharme> k
        <Cducharme> fixed
        <Ash> Same here, but I'm going to try to get a doctor to look
        at it when I scrape up some cash.
        <Ash> Oh, clock.
        <Ash> N/m.

