        #8706 +(904)- [X]

        <tom_> i heard that if you walk into a fridge and close the
        door you cant get out again
        <tom_> im sure if i got stuck in a fridge i could get out
        <tom_> im gonna fuckin try it

