        #874 +(784)- [X]

        <NOFX`> once a week someone threatens to take te channel
        <NOFX`> its getting old
        <NOFX`> iwish theyd threaten like my anal virginity or
        something
        <NOFX`> i mean something im actually scared of losing

