        #88 +(958)- [X]

        <Infe> but if i ever hit a deer with my car i'll be damned if
        i don't try to finish it off, i'll need the food after all my
        money is fixing the car#@$#@

