        #88528 +(196)- [X]

        <Fark_Ninja> The most overlooked advantage to owning a
        computer is that if it fouls up there's no law against wacking
        it around a little.
        <Cerebus> The same is actually true for a penis.

