        #88560 +(18)- [X]

        <grendal> what is it with Mexicans that they have to stand in
        the front yard?
        <grendal> like ... frequently
        <grendal> like... daily
        <aNuBiS-> its cleaner than inside their house

