        #8924 +(152)- [X]

        <un2> should i just settle for a bmw?
        <Gen`Aku> settle settle?!?!?1
        <Gen`Aku> don't use the word settle and bmw in the same
        sentance
        <Gen`Aku> unless it's about the dust settling
        <Gen`Aku> BITCH

