        #896077 +(2017)- [X]

        <XenThra> I locked my keys in my car in front of planned
        parenthood. I'm terrified of going inside to ask to borrow a
        clothes hangar.
        <DevXen> Just tell them you need to fix a mistake real quick.

