        #909427 +(2246)- [X]

        <@moss> oh jesus
        <@moss> its 6 PM
        <@moss> not am
        <Tiq> XD
        <Tiq> What have you missed, moss?
        <@moss> uh... wednesday
        <Tiq> HAHAHA

