        #91303 +(802)- [X]

        <mustafa12>Ya, in 9th grade I was reading some background
        history on a poem out loud to the class and the poem was
        written in 1337, me being the cool social butterfly that I am,
        I read it as "leet"

