        #9154 +(318)- [X]

        <Skitzo> fuck my image, i get off on huge horse wangs inside
        of human female vaginas
        <Skitzo> esp when they fill with cum and it gushes out
        <Skitzo> yeah
        <Skitzo> bestiality :D
        <Skitzo> this is what happens when you go to church as a child
        and attend christian private schools, folks
        <Skitzo> <--------- end result

