        #93834 +(1063)- [X]

        <GPF> i have your ip i will get my friend to hack you
        ahahahahah
        <CommanderStab> Muahaha you have fallen into my evil trap, do
        you know what IP stands for?!
        <CommanderStab> I stands for "Internet Police" and if you try
        to hack into it you will be arrested by the Internet Police!!!
        <GPF> thats not true
        <GPF> is it??
        <GPF> shit i better tell my friend not to hack into the other
        ips i gave him
        -!- GPF gpf@vw-18934.iinet.net.au has left #lobby
        <CommanderStab> Stupidity - the ONLY effective anti-hacker
        method.
        <tryon> lol

