        #94035 +(299)- [X]

        <MWGemini> theres a chemical release in ur body after sex that
        induces sleep
        <fAEt> its the bodys natural defense, to keep from talkin to
        the girl ;)

