        #947426 +(407)- [X]

        <megate> solve
        <megate> The word has 7 letters, preceded by God, greater than
        God, more evil than the devil, and if you eat it, you will
        die.
        <+Jigsy> Apple only has six letters.

