        #952 +(1930)- [X]

        (Mutiny) Atarax: you ate a americum disk from a smoke
        detector?
        (Atarax) Mutiny: yeah
        (Mutiny) Atarax: why?
        (Atarax) Mutiny: I thought it would give me special powers.
        (Mutiny) Atarax: what did it do to you?
        (Atarax) Mutiny: well, it didn't give me any special powers,
        but it didn't kill me either
        (Atarax) Darwin must be spinning in his grave
        (Atarax) "why is that fuck still alive"

