        #954863 +(599)- [X]

        <SirWolfgang> i just paid $85 for a hoodie...
        <tetsu> but it lasts for a decade right
        <tetsu> youll be 30 before you need to buy another hoodie
        <tetsu> and by then youll be an adult and just buy a coat

