        #96241 +(116)- [X]

        [u^A] jimmiejaz: have you use macos?
        [jimmiejaz] no.
        [u^A] it looks cool on tv
        [u^A] oh
        [syberghost] You can install MacOS on a TV?
        [syberghost] I knew it went on new-age toilets, but not TVs.

