        #98381 +(118)- [X]

        <Duran`Mun> ... I've had a religious experience
        <Lathian> Duran`Mun, did someone hit you with a bible?
        <Duran`Mun> Lathian: No, I put in my new sound Card.
        <Lathian> aaah

