        #9902 +(58)- [X]

        <trev-> but guys, he's pushing technology to its limits. hes
        revolutionizing the internet as we know it
        <trev-> you should all be thankful
        <spoon> trev- : you fucking consultant
        <spoon> stfu

